[
	{
		"TC_ID": "verifyClickOnHomePageCategoryTile",
		"TEST_CLASS_NAME": "CategoryPageTests",
		"CATEGORY_NAME_AUTOMATION":"Automation",
		"HOME_PAGE":"Home",
		"DC_DETAILS_ACCESSINVENTORY": "AccessInventory;;This Data Collection is created by UI Automation;;DS_MARKETPLACE;;Automation;;John Admin"
	},
	{
		"TC_ID": "verifyClickOnHomePageCategoryList",
		"TEST_CLASS_NAME": "CategoryPageTests",
		"CATEGORY_NAME_AUTOMATION":"Automation",
		"HOME_PAGE":"Home",
		"DC_DETAILS_ACCESSINVENTORY": "AccessInventory;;This Data Collection is created by UI Automation;;DS_MARKETPLACE;;Automation;;John Admin"
	},
	{
		"TC_ID": "verifyClickOnHomePageBreadCrumbFromParentCategory",
		"TEST_CLASS_NAME": "CategoryPageTests",
		"CATEGORY_NAME_AUTOMATION":"Automation",
		"HOME_PAGE":"Home",
		"DESCRIPTION":"Welcome to the Axon Data Marketplace! Publish data collections that other teams in your organization can use. Similarly, find and request access to published data collections on a self-service basis."
	},
	{
		"TC_ID": "verifyClickOnHomePageBreadCrumbFromSubCategory",
		"TEST_CLASS_NAME": "CategoryPageTests",
		"DATA_SETS":"DS_Anti Money Laundering",
		"CATEGORIES":"Anti Money Laundering",
		"CATEGORY_NAME_RISK_COMPLIANCE":"Risk Compliance",
		"NUMBER_PREFIX":"FROM_UNISON_AXON",
		"DC_DETAILS_DS_ANTI_MONEY_LAUNDERING": "DS_Anti Money Laundering;;DS_Anti Money Laundering created through bulk upload;;DS_Anti Money Laundering;;Anti Money Laundering;;John Admin",
		"HOME_PAGE":"Home",
		"DESCRIPTION":"Welcome to the Axon Data Marketplace! Publish data collections that other teams in your organization can use. Similarly, find and request access to published data collections on a self-service basis.",
		"CATEGORIES_SUB_CATEGORY11":"Risk Compliance/Compliance/Anti Money Laundering",
		"CATEGORIES_SUB_CATEGORY1":"Risk Compliance/Compliance",
		"DC_DETAILS_AXON-20889-DC756": "AXON-20889-DC756;;This Data Collection is created by UI Automation;;DS_MARKETPLACE;;Compliance;;John Admin",
		"CATEGORY_NAME_ANTI_MONEY_LAUNDERING":"Anti Money Laundering",
		"CATEGORY_NAME_COMPLIANCE":"Compliance"
	},
	{
		"TC_ID": "verifyClickOnParentCategoryBreadCrumbFromSubCategory",
		"TEST_CLASS_NAME": "CategoryPageTests",
		"CATEGORY_NAME_RISK_COMPLIANCE":"Risk Compliance",
		"PARENT_CATEGORY":"Risk Compliance",
		"CATEGORIES_SUB_CATEGORY11":"Risk Compliance/Compliance/Anti Money Laundering",
		"CATEGORIES_SUB_CATEGORY1":"Risk Compliance/Compliance",
		"DC_DETAILS_RISKS": "RISKS;;This Data Collection is created by UI Automation;;DS_MARKETPLACE;;Risk Compliance;;John Admin"
	},
	{
		"TC_ID": "verifyClickOnSubCategory1BreadCrumbFromSubCategory11",
		"TEST_CLASS_NAME": "CategoryPageTests",
		"CATEGORY_NAME_RISK_COMPLIANCE":"Risk Compliance",
		"CATEGORY_COMPLIANCE":"Compliance",
		"CATEGORIES_SUB_CATEGORY11":"Risk Compliance/Compliance/Anti Money Laundering",
		"DC_DETAILS_AXON-20889-DC756": "AXON-20889-DC756;;This Data Collection is created by UI Automation;;DS_MARKETPLACE;;Compliance;;John Admin"
	},
	{
		"TC_ID": "verifyTrendingList",
		"TEST_CLASS_NAME": "CategoryPageTests",
		"CATEGORY_NAME_RISK_COMPLIANCE":"Risk Compliance",
		"CATEGORY_COMPLIANCE":"Compliance"
	},
	{
		"TC_ID": "verifyDCTableAndDataCollections",
		"TEST_CLASS_NAME": "CategoryPageTests",
		"DC_COUNT": "4",
		"DC_NAME1": "ASSETDETAILS",
		"DC_DETAILS1": "ASSETDETAILS;;This Data Collection is created by UI Automation;;DS_MARKETPLACE;;Asset Management;;John Admin",
		"DC_NAME2": "SALES",
		"DC_DETAILS2": "SALES;;This is an object created for SALES;;DS_MARKETPLACE;;Asset Management;;John Admin"
	},
	{
		"TC_ID": "verifyDataCollectionsTablePagination",
		"TEST_CLASS_NAME": "CategoryPageTests",
		"PAGENUMBER_1":"1000",
		"PAGENUMBER_2":"1",
		"PAGENUMBER_3":"0",
		"ROWS_1":"5",
		"ROWS_2":"10",
		"ROWS_3":"15"
	},
	{
		"TC_ID": "verifyDCTableSettingsRemoveAndAdd",
		"TEST_CLASS_NAME": "CategoryPageTests",
		"DCTABLE_COLS": "NAME;;PURPOSE;;DATA SETS;;CATEGORY;;OWNERS;;RATING",
		"DCTABLE_REMOVE_COLS": "Owners:Hide;;Purpose:Hide",
		"DCTABLE_COLS_AFTER_REMOVE": "NAME;;DATA SETS;;CATEGORY;;RATING",
		"DCTABLE_COLS_EDIT": "Owners:Display;;Purpose:Display"
	},
	{
		"TC_ID": "verifyDCTableSettingsResetToDefault",
		"TEST_CLASS_NAME": "CategoryPageTests",
		"DCTABLE_COLS": "NAME;;PURPOSE;;DATA SETS;;CATEGORY;;OWNERS;;RATING",
		"DCTABLE_REMOVE_COLS": "Owners:Hide;;Purpose:Hide",
		"DCTABLE_COLS_AFTER_REMOVE": "NAME;;DATA SETS;;CATEGORY;;RATING"
	},
	{
		"TC_ID": "verifyMessageForEmptyDCTable",
		"TEST_CLASS_NAME": "CategoryPageTests",
		"CATEGORY_SUB_CUSTOMER_OPERATIONS": "Operations/Customer Operations"
	},
	{
		"TC_ID": "bulkUploadCategories",
		"TEST_CLASS_NAME": "CategoryPageTests",
		"OBJECT_TYPE2": "Category",
		"OBJECT_TYPE1": "Object",
		"UPLOADOPTION": "Upload New Items"
	},
	{
		"TC_ID": "bulkUploadDataCollection",
		"TEST_CLASS_NAME": "CategoryPageTests",
		"OBJECT_TYPE2": "Data Collection",
		"OBJECT_TYPE1": "Object",
		"UPLOADOPTION": "Upload New Items"
	},
	{
		"TC_ID": "verifyCategoryDCViewForSubCategories",
		"TEST_CLASS_NAME": "CategoryPageTests",
		"PARENT_CATEGORY": "Parent Category",
		"SUB_CATEGORY1": "Parent Category/Sub Category1",
		"SUB_CATEGORY2": "Parent Category/Sub Category1/Sub Category2",
		"DC_DETAILS_FOR_SUBCATEGORY1_DC": "SubCategory1_Data_Collection;;desc;;DS_MARKETPLACE;;John Admin",
		"DC_DETAILS_FOR_SUBCATEGORY2_DC": "SubCategory2_Data_Collection;;desc;;DS_MARKETPLACE;;John Admin",
		"DC_DETAILS_FOR_SUBCATEGORY3_DC": "SubCategory3_Data_Collection;;desc;;DS_MARKETPLACE;;John Admin",
		"DC_NAME_FOR_SUBCATEGORY2_DC": "SubCategory2_Data_Collection",
		"DC_NAME_FOR_SUBCATEGORY3_DC": "SubCategory3_Data_Collection",
		"DC_NAME_FOR_SUBCATEGORY1_DC": "SubCategory1_Data_Collection"
	},
	{
		"TC_ID": "verifyCategoryDCViewForInActiveCategoryAndUnpublishedDC",
		"TEST_CLASS_NAME": "CategoryPageTests",
		"PARENT_CATEGORY": "InActive_Category_DMP",
		"ACTIVE_STATUS": "Active",
		"INACTIVE_STATUS": "Inactive",
		"DC_COUNT": "1",
		"DC_DETAILS_FOR_PUBLISHED_DC": "DMP_Published_DC;;desc;;DS_MARKETPLACE;;John Admin",
		"DC_NAME_FOR_PUBLISHED_DC": "DMP_Published_DC"
	},
	{
		"TC_ID": "verifySortingForNameAndPurposeColumn",
		"TEST_CLASS_NAME": "CategoryPageTests",
		"NAME_COLUMN": "Name",
		"PURPOSE_COLUMN": "Purpose"
	},
	{
		"TC_ID": "bulkUploadCategoriesByUser",
		"TEST_CLASS_NAME": "CategoryPageTests",
		"OBJECT_TYPE2": "Category",
		"OBJECT_TYPE1": "Object",
		"UPLOADOPTION": "Upload New Items"
	},
	{
		"TC_ID": "validateInActiveCategoryByUser",
		"TEST_CLASS_NAME": "CategoryPageTests",
		"PARENT_CATEGORY_NAME": "AXON-26644_Parent_Category",
		"INACTIVE_SUBCATEGORY_NAME": "AXON-26644_Child_Category02(inactive)",
		"INACTIVE_SUBCATEGORY_DESCRIPTION": "Child Inactive Category created by UI automation for story Axon-26644",
		"INACTIVE_CATEGORY_STATUS": "Inactive",
		"Users":"default.user;;admin.user"
	},
	{
		"TC_ID": "validateInActiveCategoryShouldNotVisibleForWebUser",
		"TEST_CLASS_NAME": "CategoryPageTests",
		"PARENT_CATEGORY_NAME": "AXON-26644_Parent_Category",
		"INACTIVE_SUBCATEGORY_NAME": "AXON-26644_Child_Category02(inactive)",
		"INACTIVE_CATEGORY_STATUS": "Inactive",
		"Users":"web.user;;technical.user;;admin.user1"
	},
	{
		"TC_ID": "verifySubCategoryTilesPanel",
		"TEST_CLASS_NAME": "CategoryPageTests",
		"CATEGORY_NAME": "AXON-26644_Parent_Category",
		"SUBCATEGORY_NAME1": "AXON-26644_Child_Category01",
		"SUBCATEGORY_DESCRIPTION1": "Child Category created by UI automation for story Axon-26644",
		"SUBCATEGORY_NAME2": "AXON-26644_Child_Category02(inactive)",
		"SUBCATEGORY_DESCRIPTION2": "Child Inactive Category created by UI automation for story Axon-26644",
		"SUBCATEGORY_NAME3": "AXON-26644_Child_Category03(inactive)",
		"SUBCATEGORY_DESCRIPTION3": "Child Inactive Category created by UI automation for story Axon-26644",
		"INACTIVE_CATEGORY_STATUS": "Inactive",
		"ACTIVE_CATEGORY_STATUS": "Active",
		"Users":"web.user;;technical.user"
	}
]
