[
  {
    "TC_ID": "createNewDataCollectionRequest",
    "TEST_CLASS_NAME": "DataCollectionRequestPageTests",
    "DATACOLLECTION": "DataCollectionRequest",
    "ADDCOMMENTS": "Complete Request",
    "CREATEDDATACOLLECTION": "FIXED"
  },
  {
    "TC_ID": "rejectDataCollectionRequest",
    "TEST_CLASS_NAME": "DataCollectionRequestPageTests",
    "DATACOLLECTION": "DataCollectionRequest",
    "ADDCOMMENTS": "Reject Request"
  },
  {
    "TC_ID": "validateNewDataCollectionRequestSummary",
    "TEST_CLASS_NAME": "DataCollectionRequestPageTests",
    "DATACOLLECTION": "DataCollectionRequest",
    "BUSINESSJUSTIFICATION": "Adding business justification for new DCR",
    "CUSTOMEFIELD_NUMBER": "NUMBER;;CFREQ_Number_Type_BranchCode (optional)##123",
    "CUSTOMEFIELD_DECIMAL": "DECIMAL;;CFREQ_Decimal_Type_BranchAverageIncome##99.12",
    "CUSTOMEFIELD_PERCENTAGE": "PERCENTAGE;;CFREQ_Percentage_Type_BranchPercentageSalesImproved (optional)##90",
    "CUSTOMEFIELD_BOOLEAN": "BOOLEAN;;CFREQ_CheckBox_Type_IsYourBranchInMetro##Selected",
    "CUSTOMEFIELD_DROPDOWN": "DROPDOWN;;CFREQ_DropDown_Type_BranchPlace##CHENNAI",
    "CUSTOMEFIELD_TEXT": "TEXT;;CFREQ_Text_Type_BranchName##AXON MARKETPLACE",
    "CUSTOMEFIELD_TIME": "TIME;;CFREQ_Time_Type_NeedThisBefore_Time (optional)##09:00",
    "CUSTOMEFIELD_DATE": "DATE;;CFREQ_Date_Type_BranchOpenedDate##03 Apr 2020",
    "TIMELINE_DETAILS_1": "You;;placed the request on",
    "ORDER_DETAILS_1": "COMPANY SHARES;;Adding business justification through Automation for web user;;ORDER CANCELLED",
    "COMMENT_1": "Adding business justification through Automation for web user",
    "STAGE_DETAILS_1": "Pending Approval",
    "SIMILAR_DC": "Similar Data Collection",
    "PURPOSE": "This Data Collection is created by UI Automation",
    "STATUS": "Published",
    "DATA_OWNERS": "John Admin;;ADMIN_1 dmp",
    "TECHNICAL_OWNERS": "",
    "CATEGORY": "Automation",
    "REQSUMMARY_CF_NUMBER": "CFREQ_Number_Type_BranchCode;;123",
    "REQSUMMARY_CF_DECIMAL": "CFREQ_Decimal_Type_BranchAverageIncome;;99.12",
    "REQSUMMARY_CF_PERCENTAGE": "CFREQ_Percentage_Type_BranchPercentageSalesImproved;;90",
    "REQSUMMARY_CF_BOOLEAN": "CFREQ_CheckBox_Type_IsYourBranchInMetro;;true",
    "REQSUMMARY_CF_DROPDOWN": "CFREQ_DropDown_Type_BranchPlace;;CHENNAI",
    "REQSUMMARY_CF_TEXT": "CFREQ_Text_Type_BranchName;;AXON MARKETPLACE",
    "REQSUMMARY_CF_TIME": "CFREQ_Time_Type_NeedThisBefore_Time;;09:00",
    "REQSUMMARY_CF_DATE": "CFREQ_Date_Type_BranchOpenedDate;;03 Apr 2020"
  },
  {
    "TC_ID": "verifyLabelForNewDCR",
    "TEST_CLASS_NAME": "DataCollectionRequestPageTests",
    "DATACOLLECTION": "DataCollectionRequest",
    "BUSINESSJUSTIFICATION": "Adding business justiifcation for new DCR",
    "ADDCOMMENTS": "Adding comments",
    "STATUS": "PENDING APPROVAL"
  },
  {
    "TC_ID": "completeDCRBySimilarDCOwner",
    "TEST_CLASS_NAME": "DataCollectionRequestPageTests",
    "DATACOLLECTION": "DataCollectionRequest",
    "BUSINESSJUSTIFICATION": "Adding business justiifcation for new DCR",
    "ADD_COMMENTS": "Adding comment by Admin",
    "ADDCOMMENTS": "Complete Request",
    "CREATEDDATACOLLECTION": "FIXED",
    "TIMELINE_DETAILS_1": "You;;commented on",
    "STATUS": "FULFILLED",
    "STATUS_1": "Fulfilled",
    "PURPOSE": "This is an object created for Fixed",
    "DCSTATUS": "Published",
    "DATA_OWNERS": "John Admin",
    "TECHNICAL_OWNERS": "",
    "CATEGORY": "HR",
    "CREATED_DC": "Created Data Collection"
  },
  {
    "TC_ID": "rejectDCRBySimilarDCOwner",
    "TEST_CLASS_NAME": "DataCollectionRequestPageTests",
    "DATACOLLECTION": "DataCollectionRequest",
    "BUSINESSJUSTIFICATION": "Adding business justification for new DCR",
    "ADD_COMMENTS": "Adding comment by Admin",
    "ADDCOMMENTS": "Rejecting Request",
    "TIMELINE_DETAILS_1": "You;;commented on",
    "STATUS": "REJECTED",
    "STATUS_1": "Rejected"
  },
  {
    "TC_ID": "addCommentsBySimilarDCOwner",
    "TEST_CLASS_NAME": "DataCollectionRequestPageTests",
    "DATACOLLECTION": "DataCollectionRequest",
    "BUSINESSJUSTIFICATION": "Adding business justification for new DCR",
    "ADD_COMMENTS1": " - !\"£$%^&*()_-+={}[]:;@'#~<>,.?/|\\",
    "ADD_COMMENTS2": "Adding_Comments_Adding_Comments_Adding_Comments_Adding_Comments_Adding_Comments_Adding_Comments_Adding_Comments_Adding_Comments_Adding_Comments_Adding_Commentss_Adding_Comments_Adding_Comments_Adding_Comments_Adding_Comments_Adding_Comments_Adding_Comments",
    "REJECT_COMMENTS": "Rejecting it"
  },
  {
    "TC_ID": "verifyDescriptionForRequestsTab",
    "TEST_CLASS_NAME": "DataCollectionRequestPageTests",
    "DATACOLLECTION": "DataCollectionRequest",
    "DESCRIPTION": "Incoming requests from consumers for new data collections"
   }

]