[
	{
		"TC_ID": "createServiceNowChangeRequest",
		"TEST_CLASS_NAME": "ServiceNowValidationsTest",
		"snName_0": "DMP_SN",
		"snURL": "https://dev66251.service-now.com/",
		"snLoginUser_0": "admin",
		"snLoginPwd_0": "CK1JaHedaF5x",
		"snExternalStatusField": "status",
		"snCompletedStatus": "Closed;;Resolved",
		"snCancelledStatus": "Canceled",
		"snAdditionalFields_0": "[{\"key\":\"urgency\",\"displayName\":\"Urgency\",\"defaultValue\":\"1 - High,2 - Medium,3 - Low\",\"dataType\":\"list\",\"isMandatory\":true,\"isHidden\":false,\"isSensitive\":false},{\"key\":\"description\",\"displayName\":\"Description\",\"defaultValue\":\"Consumer orders for a data collection and order created using Marketplace UI\",\"dataType\":null,\"isMandatory\":true,\"isHidden\":false,\"isSensitive\":false},{\"key\":\"impact\",\"displayName\":\"Impact\",\"defaultValue\":\"1 - High,2 - Medium,3 - Low\",\"dataType\":\"list\",\"isMandatory\":false,\"isHidden\":false,\"isSensitive\":false},{\"key\":\"short_description\",\"displayName\":\"Short Description\",\"defaultValue\":\"Created order using marketplace UI\",\"dataType\":\"string\",\"isMandatory\":true,\"isHidden\":false,\"isSensitive\":false},{\"key\":\"category\",\"displayName\":\"Category\",\"defaultValue\":\"Inquiry \/ Help,Hardware,Software\",\"dataType\":\"list\",\"isMandatory\":false,\"isHidden\":false,\"isSensitive\":false},{\"key\":\"subcategory\",\"displayName\":\"Subcategory\",\"defaultValue\":\"Antivirus,Email,Internal Application\",\"dataType\":\"list\",\"isMandatory\":false,\"isHidden\":true,\"isSensitive\":false},{\"key\":\"comments\",\"displayName\":\"Additional comments (Customer visible)\",\"defaultValue\":\"Additional comments if any\",\"dataType\":null,\"isMandatory\":false,\"isHidden\":false,\"isSensitive\":false},{\"key\":\"contact_type\",\"displayName\":\"Contact type\",\"defaultValue\":\"Email,Phone,Self-service,Walk-in\",\"dataType\":\"list\",\"isMandatory\":false,\"isHidden\":false,\"isSensitive\":true}]",
		"snName_1": "DMP_SN_Wrong_PWD",
		"snLoginUser_1": "admin",
		"snLoginPwd_1": "test1234",
		"snAdditionalFields_1": "[{\"key\": \"urgency\",\"displayName\": \"Urgency\",\"defaultValue\": \"1 - High,2 - Medium,3 - Low\",\"dataType\": \"list\",\"isMandatory\": true,\"isHidden\": false,\"isSensitive\": false},{\"key\": \"description\",\"displayName\": \"Description\",\"defaultValue\": \"Consumer orders for a data collection and order created using Marketplace UI\",\"dataType\": null,\"isMandatory\": true,\"isHidden\": false,\"isSensitive\": false},{   \"key\": \"impact\",\"displayName\": \"Impact\",\"defaultValue\": \"1 - High,2 - Medium,3 - Low\",\"dataType\": \"list\",\"isMandatory\": false,\"isHidden\": false,\"isSensitive\": false},{   \"key\": \"short_description\",\"displayName\": \"Short Description\",\"defaultValue\": \"Created order using marketplace UI\",\"dataType\": \"string\",\"isMandatory\": true,\"isHidden\": false,\"isSensitive\": false},{   \"key\": \"category\",\"displayName\": \"Category\",\"defaultValue\": \"Inquiry \/ Help,Hardware,Software\",\"dataType\": \"list\",\"isMandatory\": false,\"isHidden\": false,\"isSensitive\": false},{   \"key\": \"subcategory\",\"displayName\": \"Subcategory\",\"defaultValue\": \"Antivirus,Email,Internal Application\",\"dataType\": \"list\",\"isMandatory\": false,\"isHidden\": true,\"isSensitive\": false},{   \"key\": \"comments\",\"displayName\": \"Additional comments (Customer visible)\",\"defaultValue\": \"Additional comments if any\",\"dataType\": null,\"isMandatory\": false,\"isHidden\": false,\"isSensitive\": false},{   \"key\": \"contact_type\",\"displayName\": \"Contact type\",\"defaultValue\": \"Email,Phone,Self-service,Walk-in\",\"dataType\": \"list\",\"isMandatory\": false,\"isHidden\": false,\"isSensitive\": true}]"
	},
	{
		"TC_ID": "dmpSNDefaultFieldsAndValuesValidation",
		"TEST_CLASS_NAME": "ServiceNowValidationsTest",
		"DataCollection": "GLOBAL SHARES",
		"snTicketStatus": "Passed",
		"serviceNowFieldValues": "Urgency:1 - High;;Description:Consumer orders for a data collection and order created using Marketplace UI;;Impact(OPTIONAL):1 - High;;Short Description:Created order using marketplace UI;;Category(OPTIONAL):Inquiry / Help;;Additional comments (Customer visible)(OPTIONAL):Additional comments if any;;Contact type(OPTIONAL):Email"
	},
	{
		"TC_ID": "dmpOrderCrationByChangingSNDefaultfields",
		"TEST_CLASS_NAME": "ServiceNowValidationsTest",
		"DataCollection": "OPERATIONS",
		"snTicketStatus": "Passed",
		"serviceNowFieldValues": "Urgency:3 - Low;;Description:Order Creating by consumer User;;Impact(OPTIONAL):3 - Low;;Short Description:The International Organization for Standardization is an international standard setting body composed of representatives from various national standards;;Category(OPTIONAL):Software;;Additional comments (Customer visible)(OPTIONAL):Please resolve this ASAP;;Contact type(OPTIONAL):Phone"
	},
	{
		"TC_ID": "dmpOrderCrationByChangingSNDefaultfieldsWithMultiByteData",
		"TEST_CLASS_NAME": "ServiceNowValidationsTest",
		"DataCollection": "OPERATIONS",
		"serviceNowFieldValues": "Urgency:3 - Low;;Description:\u0648\u0646\u0642\u0627\u0646\u0648\u0646\u0642\u0627\u0646\u0648\u0646\u0642\u0627\u0646\u0648\u0646 Asia  \u0C2A\u0C3E\u0C32\u0C28\u0C2A\u0C3E \u0CA8\u0CBF\u0CAF\u0CAE \u043F\u0440\u0430\u0432\u0438\u043B \u0928\u093F\u092F\u092E\u0928\u093F\u092F \u898F\u5247\u898F\u5247;;Impact(OPTIONAL):3 - Low;;Short Description:Test Short Description by consumer User;;Category(OPTIONAL):Software;;Additional comments (Customer visible)(OPTIONAL):Please resolve this ASAP;;Contact type(OPTIONAL):Phone",
		"snTicketStatus": "Passed"
	},
	{
		"TC_ID": "dmpValidationSNTicketManddatoryFieldsCheck",
		"TEST_CLASS_NAME": "ServiceNowValidationsTest",
		"DataCollection": "GLOBAL SHARES"
	},
	{
		"TC_ID": "dmpValidationSNTicketWithSNWrongPassword",
		"TEST_CLASS_NAME": "ServiceNowValidationsTest",
		"snName_Wrong_pwd": "ServiceNow : DMP_SN_Wrong_PWD",
		"DataCollection": "ASSETSTOCKS",
		"serviceNowFieldValues": "Urgency:2 - Medium;;Description:Order Creating by consumer User When Service Now Instance Is down;;Impact(OPTIONAL):2 - Medium;;Short Description:Order Creation - Consumer When Service Now is down;;Category(OPTIONAL):Hardware;;Additional comments (Customer visible)(OPTIONAL):Please resolve this ASAP;;Contact type(OPTIONAL):Phone",
		"snTicketStatus": "Failed"
	},
	{
		"TC_ID": "dmpSNFieldsAndDefaultValuesMyOrdersPageValidation",
		"TEST_CLASS_NAME": "ServiceNowValidationsTest",
		"DataCollection": "GLOBAL SHARES",
		"serviceNowFieldValues": "Urgency:1 - High;;Description:Consumer orders for a data collection and order created using Marketplace UI;;Impact(OPTIONAL):1 - High;;Short Description:Created order using marketplace UI;;Category(OPTIONAL):Inquiry / Help;;Additional comments (Customer visible)(OPTIONAL):Additional comments if any;;Contact type(OPTIONAL):Email",
		"snTicketStatus": "Passed"
	},
	{
		"TC_ID": "dmpSNFieldsAndUserDefinedValuesMyOrdersPageValidation",
		"TEST_CLASS_NAME": "ServiceNowValidationsTest",
		"DataCollection": "CUSTOMER",
		"serviceNowFieldValues": "Urgency:2 - Medium;;Description:Updated by Automation - Consumer orders for a data collection and order created using Marketplace UI;;Impact(OPTIONAL):3 - Low;;Short Description:Updated by automation - Created order using marketplace UI;;Category(OPTIONAL):Hardware;;Additional comments (Customer visible)(OPTIONAL):Updated by automation - Additional comments if any;;Contact type(OPTIONAL):Self-service",
		"snTicketStatus": "Passed"
	},
	{
		"TC_ID": "dmpSNFieldsAndUserDefinedLongValuesMyOrdersPageValidation",
		"TEST_CLASS_NAME": "ServiceNowValidationsTest",
		"DataCollection": "CUSTOMER",
		"serviceNowFieldValues": "Urgency:2 - Medium;;Description:Description ISO 3166 is the International Standard for country codes and codes for their subdivisions. The purpose of ISO 3166 is to define internationally recognized codes of letters and/or numbers that we can use when we refer to countries and subdivisions. However, it does not define the names of countries ABC this information comes from United Nations sources. Terminology Bulletin Country Names and the Country and Region Codes for Statistical Use maintained by the United Nations Statistical Divisions ;;Impact(OPTIONAL):3 - Low;;Short Description:Short Description ISO 3166 is the International Standard for country codes and codes for their subdivisions. The purpose of ISO 3166 is to define internationall;;Category(OPTIONAL):Hardware;;Additional comments (Customer visible)(OPTIONAL):Additional Comments ISO 3166 is the International Standard for country codes and codes for their subdivisions. The purpose of ISO 3166 is to define internationally recognized codes of letters and/or numbers that we can use when we refer to countries and subdivisions. However, it does not define the names of countries ABC this information comes from United Nations sources. Terminology Bulletin Country Names and the Country and Region Codes for Statistical Use maintained by the United Nations Statistical Divisions ;;Contact type(OPTIONAL):Self-service",
		"snTicketStatus": "Passed"
	},
	{
		"TC_ID": "dmpSNFieldsAndUserDefinedSpecialAndMultibyteValuesMyOrdersPageValidation",
		"TEST_CLASS_NAME": "ServiceNowValidationsTest",
		"DataCollection": "CUSTOMER",
		"serviceNowFieldValues": "Urgency:2 - Medium;;Description:MB Description;;Impact(OPTIONAL):3 - Low;;Short Description:MB Short DEscription;;Category(OPTIONAL):Hardware;;Additional comments (Customer visible)(OPTIONAL):MB Additional comments;;Contact type(OPTIONAL):Self-service",
		"snTicketStatus": "Passed"
	},
	{
		"TC_ID": "dmpSNMyOrdersTimelineCommentsValidation",
		"TEST_CLASS_NAME": "ServiceNowValidationsTest",
		"DataCollection": "CUSTOMER",
		"serviceNowFieldValues": "Urgency:1 - High;;Description:Consumer orders for a data collection and order created using Marketplace UI;;Impact(OPTIONAL):1 - High;;Short Description:Created order using marketplace UI;;Category(OPTIONAL):Inquiry / Help;;Additional comments (Customer visible)(OPTIONAL):Additional comments if any;;Contact type(OPTIONAL):Email",
		"snTicketStatus": "Passed",
		"timeLineDetails": "You:ServiceNow ticket is created.;;Pending Approval;;You:placed the order on <<DATE>>:This Order is created by Automation"
	},
	{
		"TC_ID": "dmpSNMyOrdersPageNoExternalTicketPanelValidationWhenSNTicketCreationFails",
		"TEST_CLASS_NAME": "ServiceNowValidationsTest",
		"snName_Wrong_pwd": "ServiceNow : DMP_SN_Wrong_PWD",
		"DataCollection": "GLOBAL SHARES"
	},
	{
		"TC_ID": "dmpSNMyOrdersTimelineCommentsValidationSNTicketFails",
		"TEST_CLASS_NAME": "ServiceNowValidationsTest",
		"DataCollection": "CUSTOMER",
		"snName_Wrong_pwd": "ServiceNow : DMP_SN_Wrong_PWD",
		"timeLineDetails": "You:ServiceNow ticket could not be created.;;Pending Approval;;You:placed the order on <<DATE>>:This Order is created by Automation"
	},
	{
		"TC_ID": "dmpValidateSNTicketOnAccessRequestPage_DefaultSNFields",
		"TEST_CLASS_NAME": "ServiceNowValidationsTest",
		"DataCollection": "SHARE VALUE",
		"serviceNowFieldValues_0": "Urgency:1 - High;;Description:Consumer orders for a data collection and order created using Marketplace UI;;Impact(OPTIONAL):1 - High;;Short Description:Created order using marketplace UI;;Category(OPTIONAL):Inquiry / Help;;Additional comments (Customer visible)(OPTIONAL):Additional comments if any;;Contact type(OPTIONAL):Email",
		"snTicketStatus_0": "Passed",
		"ServiceNowAdditionalFieldsValues_1": "Urgency:1 - High;;Description:Consumer orders for a data collection and order created using Marketplace UI;;Impact:1 - High;;Short Description:Created order using marketplace UI;;Category:Inquiry / Help;;Additional comments (Customer visible):Additional comments if any;;Contact type:Email",
		"Approve_comment": "Approving Request By Admin User Through Automation",
		"ticketurl": "https://infajira.informatica.com/browse/AXON-18410",
		"Fulfill_comment": "Fulfilling request by Tech Admin",
		"Delivery_Target": "Delivery_Target6_Non_Preferred"
	},
	{
		"TC_ID": "dmpValidateSNTicketOnAccessRequestPage_ChangingSNFields",
		"TEST_CLASS_NAME": "ServiceNowValidationsTest",
		"DataCollection": "SHARE VALUE",
		"ServiceNowAdditionalFieldsValues_2": "Urgency:2 - Medium;;Description:Description ISO 3166 is the International Standard for country codes and codes for their subdivisions. The purpose of ISO 3166 is to define internationally recognized codes of letters and/or numbers that we can use when we refer to countries and subdivisions. However, it does not define the names of countries ABC this information comes from United Nations sources. Terminology Bulletin Country Names and the Country and Region Codes for Statistical Use maintained by the United Nations Statistical Divisions ;;Impact:3 - Low;;Short Description:Short Description ISO 3166 is the International Standard for country codes and codes for their subdivisions. The purpose of ISO 3166 is to define internationall;;Category:Hardware;;Additional comments (Customer visible):Additional Comments ISO 3166 is the International Standard for country codes and codes for their subdivisions. The purpose of ISO 3166 is to define internationally recognized codes of letters and/or numbers that we can use when we refer to countries and subdivisions. However, it does not define the names of countries ABC this information comes from United Nations sources. Terminology Bulletin Country Names and the Country and Region Codes for Statistical Use maintained by the United Nations Statistical Divisions ;;Contact type:Self-service",
		"snTicketStatus_0": "Passed",
		"Approve_comment": "Approving Request By Admin User Through Automation",
		"ticketurl": "https://infajira.informatica.com/browse/AXON-18410",
		"Fulfill_comment": "Fulfilling request by Tech Admin",
		"Delivery_Target": "Delivery_Target6_Non_Preferred"
	},
	{
		"TC_ID": "dmpValidateSNTicketStatusNewOnOrderSummary",
		"TEST_CLASS_NAME": "ServiceNowValidationsTest",
		"DataCollection": "RISK_COMPLIANCE",
		"serviceNowFieldValues_0": "Urgency:1 - High;;Description:Consumer orders for a data collection and order created using Marketplace UI;;Impact(OPTIONAL):1 - High;;Short Description:Created order using marketplace UI;;Category(OPTIONAL):Inquiry / Help;;Additional comments (Customer visible)(OPTIONAL):Additional comments if any;;Contact type(OPTIONAL):Email",
		"snTicketStatus_0": "Passed",
		"snTicketStatus_1":"New",
		"ServiceNowAdditionalFieldsValues_1": "Urgency:1 - High;;Description:Consumer orders for a data collection and order created using Marketplace UI;;Impact:1 - High;;Short Description:Created order using marketplace UI;;Category:Inquiry / Help;;Additional comments (Customer visible):Additional comments if any;;Contact type:Email",
		"Approve_comment": "Approving Request By Admin User Through Automation",
		"ticketurl": "https://infajira.informatica.com/browse/AXON-18410",
		"Fulfill_comment": "Fulfilling request by Tech Admin",
		"Delivery_Target": "Other (preferred)"
	},
	{
		"TC_ID": "dmpValidateSNTicketStatusOnOrderSummary_1",
		"TEST_CLASS_NAME": "ServiceNowValidationsTest",
		"DataCollection": "RISK_COMPLIANCE",
		"serviceNowFieldValues_0": "Urgency:1 - High;;Description:Consumer orders for a data collection and order created using Marketplace UI;;Impact(OPTIONAL):1 - High;;Short Description:Created order using marketplace UI;;Category(OPTIONAL):Inquiry / Help;;Additional comments (Customer visible)(OPTIONAL):Additional comments if any;;Contact type(OPTIONAL):Email",
		"snTicketStatus_0": "Passed",
		"snTicketStatus":"In Progress%On Hold%Resolved%Closed%Canceled",
		"ServiceNowAdditionalFieldsValues_1": "Urgency:1 - High;;Description:Consumer orders for a data collection and order created using Marketplace UI;;Impact:1 - High;;Short Description:Created order using marketplace UI;;Category:Inquiry / Help;;Additional comments (Customer visible):Additional comments if any;;Contact type:Email",
		"Approve_comment": "Approving Request By Admin User Through Automation",
		"ticketurl": "https://infajira.informatica.com/browse/AXON-18410",
		"Fulfill_comment": "Fulfilling request by Tech Admin",
		"Delivery_Target": "Other (preferred)",
		"State":"2%3%6%7%8"
	},
	{
		"TC_ID": "dmpValidateSNTicketStatusOnOrderSummary_2",
		"TEST_CLASS_NAME": "ServiceNowValidationsTest",
		"DataCollection": "RISK_COMPLIANCE",
		"serviceNowFieldValues_0": "Urgency:1 - High;;Description:Consumer orders for a data collection and order created using Marketplace UI;;Impact(OPTIONAL):1 - High;;Short Description:Created order using marketplace UI;;Category(OPTIONAL):Inquiry / Help;;Additional comments (Customer visible)(OPTIONAL):Additional comments if any;;Contact type(OPTIONAL):Email",
		"snTicketStatus_0": "Passed",
		"snTicketStatus_1":"Closed",
		"ServiceNowAdditionalFieldsValues_1": "Urgency:1 - High;;Description:Consumer orders for a data collection and order created using Marketplace UI;;Impact:1 - High;;Short Description:Created order using marketplace UI;;Category:Inquiry / Help;;Additional comments (Customer visible):Additional comments if any;;Contact type:Email",
		"Approve_comment": "Approving Request By Admin User Through Automation",
		"ticketurl": "https://infajira.informatica.com/browse/AXON-18410",
		"Fulfill_comment": "Fulfilling request by Tech Admin",
		"Delivery_Target": "Other (preferred)",
		"State_1":"2",
		"State_2":"6",
		"State_3":"7"
	},
	{
		"TC_ID": "dmpValidateSNTicketStatusOnOrderSummary_3",
		"TEST_CLASS_NAME": "ServiceNowValidationsTest",
		"DataCollection": "RISK_COMPLIANCE",
		"serviceNowFieldValues_0": "Urgency:1 - High;;Description:Consumer orders for a data collection and order created using Marketplace UI;;Impact(OPTIONAL):1 - High;;Short Description:Created order using marketplace UI;;Category(OPTIONAL):Inquiry / Help;;Additional comments (Customer visible)(OPTIONAL):Additional comments if any;;Contact type(OPTIONAL):Email",
		"snTicketStatus_0": "Passed",
		"snTicketStatus_1":"Canceled",
		"ServiceNowAdditionalFieldsValues_1": "Urgency:1 - High;;Description:Consumer orders for a data collection and order created using Marketplace UI;;Impact:1 - High;;Short Description:Created order using marketplace UI;;Category:Inquiry / Help;;Additional comments (Customer visible):Additional comments if any;;Contact type:Email",
		"Approve_comment": "Approving Request By Admin User Through Automation",
		"ticketurl": "https://infajira.informatica.com/browse/AXON-18410",
		"Fulfill_comment": "Fulfilling request by Tech Admin",
		"Delivery_Target": "Other (preferred)",
		"State_1":"2",
		"State_2":"3",
		"State_3":"8"
	},
	{
		"TC_ID": "dmpValidateSNTicketInvalidStatusFieldMessage",
		"TEST_CLASS_NAME": "ServiceNowValidationsTest",
		"DataCollection": "RISK_COMPLIANCE",
		"serviceNowFieldValues_0": "Urgency:1 - High;;Description:Consumer orders for a data collection and order created using Marketplace UI;;Impact(OPTIONAL):1 - High;;Short Description:Created order using marketplace UI;;Category(OPTIONAL):Inquiry / Help;;Additional comments (Customer visible)(OPTIONAL):Additional comments if any;;Contact type(OPTIONAL):Email",
		"Message": "Not available right now. Try again later.",
		"ServiceNowAdditionalFieldsValues_1": "Urgency:1 - High;;Description:Consumer orders for a data collection and order created using Marketplace UI;;Impact:1 - High;;Short Description:Created order using marketplace UI;;Category:Inquiry / Help;;Additional comments (Customer visible):Additional comments if any;;Contact type:Email",
		"Approve_comment": "Approving Request By Admin User Through Automation",
		"ticketurl": "https://infajira.informatica.com/browse/AXON-18410",
		"Fulfill_comment": "Fulfilling request by Tech Admin",
		"Delivery_Target": "Other (preferred)",
		"snTicketStatus_0": "Passed",
		"ServiceNow_Wrong_status": "ServiceNow : DMP_SN_Wrong_STATE",
		"Service_Now_Correct": "ServiceNow : DMP_SN"
	}
]
