{
    "mainFacet": "POLICY",
    "searchGroups": [
        {
            "operator": "START",
            "active": true,
            "searches": [
                {
                    "operator": "START",
                    "active": true,
                    "facetId": "POLICY",
                    "filterGroups": [
                        {
                            "operator": "START",
                            "filters": [
                                {
                                    "operator": "START",
                                    "type": "ID",
                                    "properties": {
                                        "field": "id",
                                        "value": "3"
                                    }
                                }
                            ]
                        }
                    ]
                }
            ]
        }
    ],
    "searchScopes": {
        
        "mainFacet": {
            "facetId": "POLICY",
            "fields": [],
            "orderList": [
                {
                    "field": "id",
                    "type": "ASC"
                }
            ],
            "properties": {
                "offset": "0",
                "limit": "100"
            }
        },
        "relationships": []
    }
}