{
"name": "Delivery_Target1_Preferred",
"description": "Delivery_Target1_Preferred",
"targetSystemReference": "Marketplace",
"availableDataPresentationRefs": ["{{Data_Presentation_ID1}}"],
"defaultPhysicalLocation": "https://informatica-my.sharepoint.com/:w:/p/gbhattac/EbcLyFiUhAlIvGAleSY2ESkBu63YbM2nqY7AG1FAMmfYhw?e=VNQl2M",
"statusId": "ACTIVE",
"preferred": true
}