{
"name": "Delivery_Target4_Non_Preferred",
"description": "Delivery_Target4_Non_Preferred",
"targetSystemReference": "MRS System",
"availableDataPresentationRefs": ["{{Data_Presentation_ID1}}"],
"defaultPhysicalLocation": "C:\\Windows\\System32\\drivers\\etc",
"statusId": "ACTIVE",
"preferred": false
}